{
    "fallback_dir": "when images can't be uploaded"
    , "fallback_dir": "/home/pi/code/seclient-capture"

    , "fallback_space_to_reserve": "delete old images when n(MB) is used up"
    , "fallback_space_to_reserve": 200

    , "device_name": "my-device-name"

    , "save_width": 1296
    , "save_height": 972

    , "quality": 12

    , "scratch_width": 100
    , "scratch_height": 75

    , "threshold": "how far a pixel must change to be considered"
    , "threshold": 18

    , "sensitivity": "how many considered pixels before triggering"
    , "sensitivity": 30

    , "force_capture": "whether to force an image to be captured periodically"
    , "force_capture": true

    , "force_capture_time": "if force capture, take pic every n seconds"
    , "force_capture_time": 1800

    , "warmup": "how long the sensor is exposed before taking a picture"
    , "warmup": 50

    , "home_url": "pictures are posted to this location"
    , "home_url": "http://monitor-api.astridarium.com/api/v1.0"

    , "username": "username"
    , "token": "$2b$12$tuo8NBdJv8yyjYIjQAvKvuEvAq0bCJj0oG7oH0e9DV4DLHxePpm9."

    , "camera_options": {
        "hflip": true
        , "vflip": true
    }
}
